Homework 2 - Solutions
…
abalone <- read_csv(url, col_names = abalone_col_names);

Rows: 4177 Columns: 9
── Column specification ────────────────────────────────────────────────────────
Delimiter: ","
chr (1): sex
dbl (8): length, diameter, height, whole_weight, shucked_weight, viscera_wei...

ℹ Use `spec()` to retrieve the full column specification for this data.
ℹ Specify the column types or set `show_col_types = FALSE` to quiet this message.

abalone

# A tibble: 4,177 × 9
   sex   length diameter height whole_weight shucked_wei…¹ visce…² shell…³ rings
   <chr>  <dbl>    <dbl>  <dbl>        <dbl>         <dbl>   <dbl>   <dbl> <dbl>
 1 M      0.455    0.365  0.095        0.514        0.224   0.101    0.15     15
 2 M      0.35     0.265  0.09         0.226        0.0995  0.0485   0.07      7
 3 F      0.53     0.42   0.135        0.677        0.256   0.142    0.21      9
 4 M      0.44     0.365  0.125        0.516        0.216   0.114    0.155    10
 5 I      0.33     0.255  0.08         0.205        0.0895  0.0395   0.055     7
 6 I      0.425    0.3    0.095        0.352        0.141   0.0775   0.12      8
 7 F      0.53     0.415  0.15         0.778        0.237   0.142    0.33     20
 8 F      0.545    0.425  0.125        0.768        0.294   0.150    0.26     16
 9 M      0.475    0.37   0.125        0.509        0.216   0.112    0.165     9
10 F      0.55     0.44   0.15         0.894        0.314   0.151    0.32     19
# … with 4,167 more rows, and abbreviated variable names ¹​shucked_weight,
#   ²​viscera_weight, ³​shell_weight
…
